…
    ## # A tibble: 752 x 7
    ##    region  population age   sex       HDI gdp_for_year.... gdp_per_capita.…
    ##    <fct>        <dbl> <fct> <fct>   <dbl>            <dbl>            <dbl>
    ##  1 Southe…       2.52 55-7… male  -0.0718            -1.94            -1.22
    ##  2 Southe…       2.55 35-5… male  -0.0718            -1.94            -1.22
    ##  3 Southe…       2.49 25-3… male  -0.0718            -1.94            -1.22
    ##  4 Southe…       2.38 75+ … male  -0.0718            -1.94            -1.22
    ##  5 Southe…       2.53 15-2… male  -0.0718            -1.94            -1.22
    ##  6 Southe…       2.49 25-3… fema… -0.0718            -1.94            -1.22
    ##  7 Southe…       2.40 75+ … fema… -0.0718            -1.94            -1.22
    ##  8 Southe…       2.56 35-5… fema… -0.0718            -1.94            -1.22
    ##  9 Southe…       2.52 55-7… fema… -0.0718            -1.94            -1.22
    ## 10 Southe…       2.52 15-2… fema… -0.0718            -1.94            -1.22
    ## # … with 742 more rows
…
    ## # A tibble: 66 x 7
    ##    region  population age   sex       HDI gdp_for_year.... gdp_per_capita.…
    ##    <fct>        <dbl> <fct> <fct>   <dbl>            <dbl>            <dbl>
    ##  1 Southe…       2.38 75+ … male  -0.0718           -1.94           -1.22  
    ##  2 Southe…       2.52 5-14… male  -0.0718           -1.94           -1.22  
    ##  3 Wester…       2.49 5-14… fema… -0.0728           -2.20           -1.45  
    ##  4 Caribb…       2.33 25-3… male  -0.0198           -2.11            0.714 
    ##  5 Wester…       2.45 15-2… male   0.0252           -1.18            0.422 
    ##  6 Caribb…       2.29 25-3… male  -0.0138           -2.93            0.140 
    ##  7 Caribb…       2.31 55-7… male  -0.0138           -2.93            0.140 
    ##  8 Caribb…       2.16 75+ … male  -0.0138           -2.93            0.140 
    ##  9 Easter…       2.54 5-14… male  -0.0208           -0.499          -0.740 
    ## 10 South …       2.56 75+ … fema…  0.0202            0.964          -0.0649
    ## # … with 56 more rows
…
Based on a N(0,1) distribution, we expect 5% of observations to have
standardized residuals with magnitude greater than 2 because of the
68-95-99.7 rule.

There are 66 observations flagged as having standardized residuals with
large magnitude and 1056 observations in total, so approximately 6.25%
of observations have standardized residuals with magnitude greater than
2. This is not a concern because this is only a small percentage greater
than 5%.

    ## Warning: 'tidy.numeric' is deprecated.
    ## See help("Deprecated")

    ## # A tibble: 90 x 2
    ##    names                    x
    ##    <chr>                <dbl>
    ##  1 sexmale                 NA
    ##  2 age25-34 years          NA
    ##  3 age35-54 years          NA
    ##  4 age5-14 years           NA
    ##  5 age55-74 years          NA
    ##  6 age75+ years            NA
    ##  7 population              NA
    ##  8 HDI                     NA
    ##  9 `gdp_for_year ($)`      NA
    ## 10 `gdp_per_capita ($)`    NA
    ## # … with 80 more rows

Because all of the values are NA, this means these variables are
perfectly or almost perfectly correlated. This is most likely to our
inclusion of interaction terms in our model. Thus, we will remove these
terms and run VIF again.

    ## Warning: 'tidy.numeric' is deprecated.
    ## See help("Deprecated")

    ## # A tibble: 25 x 2
    ##    names                    x
    ##    <chr>                <dbl>
    ##  1 sexmale               1.00
    ##  2 age25-34 years        1.67
    ##  3 age35-54 years        1.82
    ##  4 age5-14 years         1.68
    ##  5 age55-74 years        1.67
    ##  6 age75+ years          2.90
    ##  7 population           17.1 
    ##  8 HDI                  13.2 
    ##  9 `gdp_for_year ($)`   21.2 
    ## 10 `gdp_per_capita ($)` 15.0 
    ## # … with 15 more rows
…
Based on this pairs plot from EDA, we can see that HDI, gdp\_for\_year,
gdp\_per\_capita, and population are all very correlated. Thus, we will
remove gdp\_for\_year from the model, since it seems to have the
strongest correlation with all three of the other variables, and run VIF
again.

    ## Warning: 'tidy.numeric' is deprecated.
    ## See help("Deprecated")

    ## # A tibble: 24 x 2
    ##    names                    x
    ##    <chr>                <dbl>
    ##  1 sexmale               1.00
    ##  2 age25-34 years        1.67
    ##  3 age35-54 years        1.69
    ##  4 age5-14 years         1.67
    ##  5 age55-74 years        1.67
    ##  6 age75+ years          1.82
    ##  7 population            2.09
    ##  8 HDI                  13.1 
    ##  9 `gdp_per_capita ($)`  8.77
    ## 10 regionCaribbean       7.39
    ## # … with 14 more rows

All predictors now have variance inflation factors less than 10 except
for HDI. Thus, we can remove HDI as well from the model.

    ## Warning: 'tidy.numeric' is deprecated.
    ## See help("Deprecated")

    ## # A tibble: 23 x 2
    ##    names                     x
    ##    <chr>                 <dbl>
    ##  1 sexmale                1.00
    ##  2 age25-34 years         1.67
    ##  3 age35-54 years         1.68
    ##  4 age5-14 years          1.67
    ##  5 age55-74 years         1.67
    ##  6 age75+ years           1.81
    ##  7 population             1.99
    ##  8 `gdp_per_capita ($)`   2.30
    ##  9 regionCaribbean        6.17
    ## 10 regionCentral America  4.91
    ## # … with 13 more rows
…
